name, A1, email, A2, category, A3
"Arvind","","a.chawla@uralkali-trading.com","",,""
"Anurag","","A.Mathur@singapore.rickmers.sg","",,""
"Rajagopalan","","a.rajagopalan@sumitomocorp.co.jp","",,""
"Ura San","","A.Ura@mitsui.com","",,""
"Arthur","","aae@gearbulk.com","",,""
"Amit","","aagrawal@bajajhindustan.com","",,""
"Amer","","aAlAfeefi@adnatcongsco.ae","",,""
"Mr. Mondal","","aamondal@aet-tankers.com","",,""
"Aarti","","aarti.gupta@riotinto.com","",,""
"Mr. Philip","","abbey.philip@indiaglycols.com","",,""
"Zafar","","abdul.zafar@jindalvector.com","",,""
"Abey","","abey@coalandoil.com","",,""
"Abhijeet","","abhijeet2k1@sify.com","",,""
"Mr. Abhijeet","","abhijeet@abhijeet.in","",,""
"Mr. Abhijit","","Abhijit.chaudhury@jsw.in","",,""
"Abhijit","","Abhijitsinh.Jadeja@adani.com","",,""
"Abhilash","","abhilash@psons.com","",,""
"Mr. Mohapatra","","abhinandan_mahapatra@greatship.com","",,""
"Abhishek","","abhishek.agarwal@visashipping.com","",,""
"Abhishek","","abhishek.sinha@glencore.co.in","",,""
"Abhishek","","abhishek.sinha@glencore.com","",,""
"Abraaham","","abraaham@india.conceptum-logistics.com","",,""
"Abu","","abu@coalandoil.com","",,""
"Mr. Anand","","adaftary@iclfertindia.com","",,""
"Adarsh","","adarsh.srinivas@gmrgroup.in","",,""
"Amlan","","adasgupta@apeejaygroup.com","",,""
"Adeep","","adeep.mann@magnifico.cc","",,""
"Mr. Setiadi","","adibuana@cbn.net.id","",,""
"Aditya","","aditya_kumar@ruchigroup.com","",,""
"Jitendra","","ADMTradingIndia@adm.com","",,""
"Mr. Datta","","adutta@indiacarbonltd.com","",,""
"Mr. Advani","","advanisl@bharatpetroleum.in","",,""
"Ashok Ji","","agarcoal@sancharnet.in","",,""
"Jerald","","agarcoal@yahoo.co.in","",,""
"Kavyashree","","agedesk@scorpiogroup.net","",,""
"Arvind","","aghuwalewala@kctglobalpte.com","",,""
"Mr. Agrawal","","agrawalshyam2004@yahoo.com","",,""
"Ahamed","","ahamedshah@coastalfuel.com","",,""
"Ajay","","ajay.baral@globalcoal.com","",,""
"Ajay","","ajay.j@islworld.net","",,""
"Capt. Kumar","","ajay.kumar@ambujacement.com","",,""
"Ajay","","ajay@etatns.com","",,""
"Ajayan","","ajayan.sahadevan@oldendorff.com","",,""
"Ajay","","ajaykantjha@yahoo.com","",,""
"Ajay","","ajay_chauhan@hotmail.com","",,""
"Ajish","","ajishsoman@krishnapatnamport.com","",,""
"Ajit","","ajit.bhargava@jsw.in","",,""
"Ajith","","ajith.talaiver@hctrading.com","",,""
"Anil","","ak@amarante.com.sg","",,""
"Ashok","","ak@emmsons.com","",,""
"Akash","","akash.shah@sanghicement.com","",,""
"Akash","","Akash.Srivastava@gmrgroup.in","",,""
"Ashok Ji","","akgandotra@peclimited.com","",,""
"Mr. Giri","","akgiri@zuari.adventz.com","",,""
"Akhil","","akhil@asa-portfolio.com","",,""
"Mr. Khoori","","akhouri@adnatcongsco.ae","",,""
"Mr. Arun","","akumar@ptcindia.com","",,""
"Alok","","Al.Yadav@mitsui.com","",,""
"Mr. Zheng","","alan_zheng@tsl-group.com","",,""
"Albert","","albert@zuari.adventz.com","",,""
"Alex","","alex@agritrade.com.sg","",,""
"Waleed Ali","","AlharbiW@Maaden.com.sa","",,""
"Ajmal","","ali.ajmal@gearbulk.com","",,""
"Ali","","ali@xcoal-asia.com","",,""
"Mr. Kurashi","","AlkurashiAS@sabic.com","",,""
"Allen","","allenp@bitumen.net","",,""
"Mr. Alok","","alok.a.srivastava@relianceada.com","",,""
"Alok","","Alok.Ranjan@vedanta.co.in","",,""
"Mr. Alok","","alok15@rediffmail.com","",,""
"Aman","","amanbhatia@bhatiacoalindia.com","",,""
"Amandeep","","amandeep@marinedelivery.com.sg","",,""
"Aman","","amankalra@vardhman.com","",,""
"Amar","","amar@rawmet.co.in","",,""
"Capt. Jamshed","","amarante@amarante.com.sg","",,""
"Mr. Mandal","","amarnath.mandal@lancogroup.com","",,""
"Mr. Dharam","","amdharam@tatapower.com","",,""
"Ameet","","ameet.kulkarni@glencore.co.in","",,""
"Akshay","","amehta@marexspectron.com","",,""
"Amit","","amit.dubey@hpl.co.in","",,""
"Amit","","amit.kumar@imr-resources.com","",,""
"Amit","","amit.maloo@adityabirla.com","",,""
"Amit","","Amit.Nandoskar@apmterminals.com","",,""
"Amit","","amit.narain@riotinto.com","",,""
"Amit","","amit.rahul@westernbulk.com","",,""
"Amit","","amit.saxena@imr-resources.com","",,""
"Amit","","amit.shukla@visaresources.in","",,""
"Amit","","amit_takkar@ruchigroup.com","",,""
"Mr. Zaheerudin","","amptc.cairo@amptc.net","",,""
"Amrita","","amrita.bhattacharya@mechel.com","",,""
"Amruth","","amruth.ganapathy@caravel-group.com","",,""
"Anand","","Anand.Atre@jsw.in","",,""
"Capt. Anand","","anand.verma@adityabirla.com","",,""
"Anand","","anand@ocpindia.org","",,""
"Anand","","anandsatam@ashapura.com","",,""
"Anees","","aneesa@etatns.com","",,""
"Mr. Nijhawan","","anijhawan@tatasteel.com","",,""
"Anil","","anil.budhiraja@katana.in","",,""
"Mr. Devli","","anil.devli@irclass.org","",,""
"Capt. Anil","","anil.himat@valencia-sg.com","",,""
"Anil","","anil.kumar@trammo.com","",,""
"Anil","","anil.nair@adani.com","",,""
"Mr. Anil","","anil@shardamaa.com","",,""
"Mr. Jain","","aniljain@arihantcoal.com","",,""
"Anil","","Anilk.Singh@adani.com","",,""
"Mr. Mittal","","anilmittal@krblindia.com","",,""
"Animesh","","animesh.bhattacharya@ldcom.com","",,""
"Anirban","","anirban.p.chowdhury@relianceada.com","",,""
"Anirban","","anirban.sen@ariainternational.de","",,""
"Anish ji","","anish.arora@indiaglycols.com","",,""
"Ms. Anita","","anita.kapoor@ltgroup.com","",,""
"Anjani","","anjani.thakur@jindalsteel.com","",,""
"Ankit","","ankit.khemka@bunge.com","",,""
"Ankit","","ankitparnami@marggroup.com","",,""
"Ankur","","ankur.mmtpl@gmail.com","",,""
"Ankush","","ankush.girdhar@mitsubishicorp.com","",,""
"Ankush","","ankushjain@bhatiacoalindia.com","",,""
"Capt. Antia","","antia@tatanykshipping.com","",,""
"Anubhav","","anubhav.saxena@jsw.in","",,""
"Anubhav","","anubhavsharma@noblechartering.com","",,""
"Anuj","","anuj.mahajan@libertyhouseuk.com","",,""
"Anuj","","anuj@aail.co.in","",,""
"Anup","","anup.chatterjee@odfjell.com","",,""
"Mr. Nagpal","","anupam@potindia.com","",,""
"Anupama","","anupama.arya@imr-resources.com","",,""
"Anupama","","anupama@vasishipping.com","",,""
"Mr. Anuraag","","anuraag@jaidrinks.com","",,""
"Capt Anurag","","anurag.bhagauliwal@adani.com","",,""
"Anurag","","anurag@dreymoorfert.com","",,""
"Alok","","ap@amarante.com.sg","",,""
"Amar","","apaul@lotusresources.com","",,""
"Capt. Sunny","","arath_kanal@cargill.com","",,""
"Mr. Kuchroo","","arcadiashipping@vsnl.com","",,""
"Arij Bhai","","arij@rahimtulagroup.com","",,""
"Arjun","","arjun.k@dssi-in.com","",,""
"Ms. Heera","","ark@ark.co.kr","",,""
"Ramkrishna","","ark@arkindia.com","",,""
"Mr. Sastri","","arks@adventzinfra.com","",,""
"Arun","","arozario@mmtclimited.com","",,""
"Arpita","","Arpita.Mahabaleshwarkar@oldendorff.com","",,""
"Mr. Gupta","","arun.gupta@sci.co.in","",,""
"Arun","","arun.jindal@relianceada.com","",,""
"Mr. Ray","","arun.ray@mitsubishicorp.com","",,""
"Arun","","arun.sood@ldcom.com","",,""
"Capt. Nanda","","arun@mercator.in","",,""
"Mr. Das","","arunangshu.das@hmel.in","",,""
"ArunKumar","","arunkumar@devcoalindia.com","",,""
"Arun","","arun_tulshan@crgl-thirdparty.com","",,""
"Aravind","","arvind.rajgopalan@jsw.in","",,""
"Arvind","","arvindchaturvedi@bhatiacoalindia.com","",,""
"Ashish","","ashish.lakhotia@etgworld.com","",,""
"Ashish","","ashish.niranjan@essar.com","",,""
"Capt. Singhal","","ashish.singhal@adani.com","",,""
"Ashish","","ashish@seatrek.com.sg","",,""
"Ashish","","ashish_mathur@admworld.com","",,""
"Mr. Ashit","","ashit@asa-portfolio.com","",,""
"Capt. Gole","","ashok.gole@apmterminals.com","",,""
"Ashok","","ashok@adani-global.com","",,""
"Mr. Ashok","","ashok@adityaa.com.sg","",,""
"Ashraf","","Ashraf.Ali@bunge.com","",,""
"Asik","","asik.ali@rwe.com","",,""
"Anjana","","asingh@mmtclimited.com","",,""
"Mr. Swaminathan","","asn@thriveni.sg","",,""
"Capt. Alok","","asrivastava@scorpiogroup.net","",,""
"Asty","","asty@hits.co.id","",,""
"Ashish","","atlantic@norvicshipping.com","",,""
"Mads","","atlasgasops@atlasmaritime.com","",,""
"Arunabh","","atripathi@coeclerici.com","",,""
"Audrey","","audrey@tatanykshipping.com","",,""
"Auro","","auro_biswas@ruchigroup.com","",,""
"Avdhesh","","avdhesh.bajpai@bhushansteel.com","",,""
"Venkat","","avenkatram@paraphos.com","",,""
"Avanti","","avika08@hotmail.com","",,""
"Capt. Bobby","","awasthibobby@yahoo.com.hk","",,""
"Sanjiv","","bajaj@tajmahalrice.com","",,""
"Balaji","","balaji@devcoalindia.com","",,""
"Capt. Bassam","","Balshebli@adnatcongsco.ae","",,""
"Mr. Sachdeva","","balwantrai.sachdeva@jindalsaw.com","",,""
"Mr. Bhartia","","basantagro@hotmail.com","",,""
"Bashar","","bashar.m@arabpotash.com","",,""
"Mr. Basith","","basith@coalandoil.co.id","",,""
"Mr. Rao","","bcomml@kudreore.com","",,""
"Mr. Dash","","bddash@mmtclimited.com","",,""
"Noella","","BDTeam@tatanykshipping.com","",,""
"Pushkar","","bery@bery.no","",,""
"Mr. Thakore","","bhadresh.thakore@glencoreindia.com","",,""
"Bharath","","Bharath.srinivas@archeangroup.com","",,""
"Mr. Bhardwaj","","bhardwaj@nic.in","",,""
"Capt. Pathak","","Bhartesh_Pathak@balaji.co.in","",,""
"Bhavani","","bhavani@moharshipping.com","",,""
"Bhavit","","bhavit@lcbteam.com","",,""
"Mr. Rao","","bhushan@ariesfertilisers.com","",,""
"Biju","","biju@reiagro.com","",,""
"Bivek","","bivekananda.patra@adityabirla.com","",,""
"Hyun","","biz@ocean11.co.kr","",,""
"Chris","","biz@swshipping.co.kr","",,""
"Mr. Kum","","biz@unicoshpg.com","",,""
"Capt. Sattari.","","blkindustops@irisl.net","",,""
"Edmund","","Bo.Tan@mitsui.com","",,""
"Patrick","","bocimar.operations@cmb.be","",,""
"Smita","","bom.ops@odfjell.com","",,""
"Mishra Ji","","bpmishra@zuari.adventz.com","",,""
"Mr. Bannerjee","","bpslexport@gmail.com","",,""
"Mr. Nayak","","bpurchase@kudreore.com","",,""
"Brad","","BRAD.SATAVA@MOSAICCO.COM","",,""
"Brijesh ji","","brijesh.gupta@adani.in","",,""
"Capt. Malhotra","","brisk@briskmarine.com","",,""
"Sijjin","","bs@navalmar.co.in","",,""
"Mr. Bhuptani","","bsb@tolanigroup.com","",,""
"Mr. Ram","","bsrk_agro@yahoo.co.in","",,""
"Ben","","bstewart@nobleenergy.com","",,""
"Bulelwa","","bulelwa.mbovane@petrosa.co.za","",,""
"Windy","","bulk.cht.sin@clipper-group.com","",,""
"Tim","","bulk@komrowski.net","",,""
"Inoue San","","bulk@nsuship.com.sg","",,""
"Mr. Byun","","bulk@shipland.com","",,""
"Anurag","","bulkchart@mllsg.com","",,""
"Honsoo","","bulkop@hanjin.com","",,""
"Capt. Petersen","","bulkops@torm.com","",,""
"Peh","","business@bossoilenergy.com","",,""
"Sir","","businessdevelopment@bhatiacoalindia.com","",,""
"Mr. Murugeswaran","","c.murugeswaran@vedanta.co.in","",,""
"Sanjay","","C.Sanjay@dalmiabharat.com","",,""
"Tamal","","cal.ops@benlineagencies.in","",,""
"Thorsten","","cape@brsbrokers.com","",,""
"Andries","","cape@cldn.com","",,""
"Cobus","","capeops@swissmarine.ch","",,""
"Capt. Abraham","","capepmaxops@cargill.com","",,""
"Govind","","capt.govind@pw-shipping.com","",,""
"Capt. Irani","","capt.irani@constellationMS.com","",,""
"Capt. Sanjeev","","capt.khanijo@tciseaways.com","",,""
"Capt. Ashish","","captbhalla@hopp.biz","",,""
"Prasad","","Captprasad@daiichiindia.com","",,""
"Capt. Santosh","","captsantosh.tbc@transworld.co","",,""
"Capt. Thamara","","captthamara@yahoo.com","",,""
"Capt. Lwin","","captwin@daiichi.com.sg","",,""
"Capt. Raney","","capt_raj@vsnl.com","",,""
"Dodd","","CARPENTD@KOCHIND.COM","",,""
"Cino","","caumont@seawaysam.com","",,""
"Marianne","","cbb@cbbenergy.ch","",,""
"Mr. Nagia","","cbb@cbbindia.in","",,""
"Capt. Budhraja","","cbudhraja@aet-tankers.com","",,""
"Mr. Sharma","","ccc-ship@nic.in","",,""
"Mr. Mohapatra","","ceo@dhamraport.com","",,""
"Mr. Sudarshan","","cgs@ramcocements.co.in","",,""
"Mr. Purshottam","","chairman@apsindore.com","",,""
"Mr. Chakradhar","","chakradhar.mantripragada@allcargologistics.com","",,""
"Jayanta","","chanda@pclind.net","",,""
"Chandan","","chandan.jain@renukaindo.com","",,""
"Leon","","chart-india@oldendorff.com","",,""
"Vane","","Chart.HK@murship.com","",,""
"Capt. Harihar","","chartering.dxb@mcquilling.com","",,""
"Capt. Keith","","Chartering.ind@pgscglobal.com","",,""
"Henrik","","chartering.singapore@westernbulk.com","",,""
"Mr. Roy","","chartering1@nordbell.ch","",,""
"Capt. Srivastava","","Chartering@allcargoglobal.com","",,""
"Capt. Karl","","chartering@andersonhughes.com","",,""
"Mr. Dewan","","chartering@ash-lee.com","",,""
"Capt. Erol","","chartering@auroratankers.com","",,""
"Sushant","","chartering@bagadiya.com.sg","",,""
"Connie","","chartering@baosource.com","",,""
"Roy","","chartering@bluefleetgroup.com","",,""
"Kum","","Chartering@byshipping.co.kr","",,""
"Capt. Sunny","","chartering@cingler.com.sg","",,""
"Mr. Sajjid","","chartering@cwmaritime.com","",,""
"Jahufar","","chartering@dbcshipping.com","",,""
"Jayasri","","chartering@dnmaritime.com","",,""
"Karl","","chartering@easternbulk.com","",,""
"Satish","","chartering@eastmenshipping.com","",,""
"Ernesto","","chartering@energycoal.com","",,""
"Tarang","","chartering@fairwayfreights.com","",,""
"Ms. Claire","","chartering@fairwind.com.cn","",,""
"Mr. Hariharan","","chartering@fearnleys.co.th","",,""
"Mr. Cheer","","chartering@fullblossom.cn","",,""
"Capt. Vivek","","chartering@glimpex.com","",,""
"Peng","","chartering@harmonyinnovation.com","",,""
"Thomas","","chartering@imssa.gr","",,""
"Sir","","chartering@italbulk.com","",,""
"Majed","","chartering@jicc.jo","",,""
"Punit","","chartering@klaveness.com","",,""
"Mr. Kumar","","chartering@kyori.in","",,""
"Capt. Anil","","chartering@marcotrans.in","",,""
"Capt. Suail","","chartering@medbrokerage-ny.com","",,""
"Gautam","","chartering@mgldubai.com","",,""
"Sami","","chartering@murship.ae","",,""
"Mahesh","","chartering@nauticalshipping.com","",,""
"Claus","","chartering@navisiongroup.com","",,""
"Christian","","chartering@nordic-bulk.com","",,""
"Deepak","","chartering@norvicshipping.com","",,""
"Dirk","","chartering@orionbulkers.com","",,""
"Gennadiy","","chartering@phaethon.com.ua","",,""
"Abhijit","","chartering@platinabulkers.com","",,""
"Azeez","","chartering@pw-shipping.com","",,""
"Stephen","","chartering@quantumfertilisers.com","",,""
"Ajay ji","","chartering@reshamwalashipbrokers.com","",,""
"Asit","","chartering@seapowermail.com","",,""
"Costantino","","chartering@seawaysam.com","",,""
"Ashok","","chartering@skstpl.com.sg","",,""
"Mohandas","","chartering@sot.ae","",,""
"Rachit","","chartering@starshipindia.com","",,""
"Michel","","Chartering@suekag.com","",,""
"Paul","","chartering@swissbulkshipping.co.uk","",,""
"Izzie","","chartering@taichishipping.com","",,""
"Jayant","","chartering@tejalship.com","",,""
"Sohel","","chartering@transnational.sg","",,""
"Niu","","chartering@uniwellshipping.com","",,""
"Capt. Salam","","chartering@vastshipping.com","",,""
"Yogesh","","chartering@vegaship.ae","",,""
"Mr. Chatwal","","chatwal@sungroupindia.com","",,""
"Mr. Ganguly","","chawm@gujaratnre.com","",,""
"Mr. Woo","","chem@hanjin.com","",,""
"Alain","","chemical@brs-paris.com","",,""
"Chetan","","chetanshah@krishnapatnamport.com","",,""
"Mr. Chinmaya","","chinmay.padhy@jsw.in","",,""
"Chris","","chris.chen@dhl.com","",,""
"Chris","","chris@ark.co.kr","",,""
"Capt. Verma","","chris@vshipline.com","",,""
"Mr. Christophe","","Chrisg@australasialine.com","",,""
"Capt. Umesh","","chrt@aquariusship.com","",,""
"Capt. Kapoor","","chtg@cti-shipbroker.com","",,""
"Mr. Sharma","","ck.sharma@opgpower.com","",,""
"Mr. Bang","","ckseoul@ckship.com","",,""
"Clement","","clementwoon@mercuria.com","",,""
"Mr. Rao","","cln@zuari.adventz.com","",,""
"Mr. Talwar","","cmand@cmaindia.org","",,""
"Capt. Murali","","cmk@sivabulk.com","",,""
"Mr. Reddy","","cnarasimha_reddy@jubl.com","",,""
"Sarker/Prakash Chand/Samir","","co.stc@nic.in","",,""
"Shri. Sehrawat","","co1.hub@nic.in","",,""
"Shri. Sehrawat","","co2.hub@nic.in","",,""
"Capt. Chabbra","","co3-ship@nic.in","",,""
"Shri N.C. Jain","","co4.hub@nic.in","",,""
"Manu","","coal@panmet.in","",,""
"Mr. Gidionsen","","coalorbis@coalorbis.de","",,""
"Sabby","","coalpulse@coalpulse.com","",,""
"Sudesh","","coastel@vsnl.com","",,""
"Pamela","","commercial@bulkafricaline.com","",,""
"Mr. Gupta","","commercial@gangavaram.com","",,""
"Mr. Haldankar","","commercial@goacarbon.com","",,""
"Capt. Dhiraj","","commercial@kcmaritime.com","",,""
"Mr. Sawy","","commercialaffairs@nnc.com.eg","",,""
"Capt. Leal","","common.mail@yamamaru.com","",,""
"Henry","","company@gm-trust.com","",,""
"Mr. Rishi Raj","","contact@gremach.com","",,""
"Virendra","","contact@shippingtribune.com","",,""
"Mike","","conti@minerals.com.hk","",,""
"Mr. Kashyap","","CPKK1@sanmargroup.com","",,""
"Mr. Rao","","cprao@essar.com","",,""
"Mr. Ramesh","","cramesh@kfil.com","",,""
"Ashish","","cs@hindenergy.com","",,""
"Unni","","cuk@mmtclimited.com","",,""
"Dmitri","","D.Aksenov@phosagro.ru","",,""
"Deepa","","dagarwal@mercuria.com","",,""
"Ievan","","daniar.ievan@vietmindo.com","",,""
"Daniel","","danieljothikumar-cibtl@chettinad.com","",,""
"Darshan","","Darshan.Gosalia@oldendorff.com","",,""
"Mr. Dwarkanath","","dbellary@hotmail.com","",,""
"Ratna","","dcspop@daiichi.com.sg","",,""
"Mr. Debashish","","debashish.mukherjee@tatachemicals.com","",,""
"Deepak","","deepak.kalia@mitsubishicorp.com","",,""
"Deepak","","deepak.razdan@adityabirla.com","",,""
"Deepak","","deepak.silswal@essar.com","",,""
"Deepak","","Deepak.Varyani@vedanta.co.in","",,""
"Deepak","","deepak@oorjaindo.com","",,""
"Deepak","","deepakkamath@ashapura.com","",,""
"Deepit","","deepit.singh@gopalpurports.com","",,""
"Capt. Rishi","","delhi@doehledanautic.com","",,""
"Anil","","DELHIOPS@czarnikow.com","",,""
"Devarshi","","devarshi.das@acclimited.com","",,""
"Dev","","devbhalla@dreymoorfert.com","",,""
"Mr. Devkinandan","","devkia@gmail.com","",,""
"Mr. Chaudhary","","dgmprojects@simhapurienergy.com","",,""
"Divay","","dgo@sivashipping.com","",,""
"Mr. Krishna","","dhananjaykrishna@coromandel.murugappa.com","",,""
"Dharmavir","","Dharmavir.Jha@flsmidth.com","",,""
"Dheeraj","","dheeraj_sharma@anikinternational.com","",,""
"Diego","","diego.bardocci@duferco.com","",,""
"Dilip","","dilip@virtuousurja.com","",,""
"Dilip","","dilipgawde@nobleenergy.com","",,""
"Dinesh","","dinesh.goel@larsentoubro.com","",,""
"Dinesh","","dinesh.kumar2@essar.com","",,""
"Capt. Dinesh","","dinesh.lokapure@apmterminals.com","",,""
"Mr. Patel","","dineshpatel@prabhatgroup.com","",,""
"Dipankar","","dipankar.das@athagroup.in","",,""
"Dipti","","dipti.goyal@icppl.co.in","",,""
"Divyanshu","","Divyanshu.Tambe@edelweissfin.com","",,""
"Mr. Son","","djson1029@cj.net","",,""
"Deepak","","dkamath@allenchart.com","",,""
"Mr. Gupta","","dkgupta@peclimited.com","",,""
"Mr. Kureel","","dkureel@thisisnoble.com","",,""
"Leonid","","dll@belpc.by","",,""
"Vineeta","","dlxne@dg.mitsui.com","",,""
"Sir","","DLXOF@dg.mitsui.com","",,""
"Mr. Fadlon","","doron.fadlon@iclfertilizers.com","",,""
"Jagdeep","","dry@cingler.com.sg","",,""
"Capt. Bhatia","","dry@emeraldmaritime.net","",,""
"Chae","","dry@fairbridge.co.kr","",,""
"Ankur","","dry@globusmarine.com","",,""
"Partha","","Dry@islworld.net","",,""
"Mohit","","dry@maricon.in","",,""
"Capt. Amarvir","","dry@rayshipping.in","",,""
"Capt. Kishore","","dry@reshamwalashipbrokers.com","",,""
"Deepak","","dry@saigalseatrade.com","",,""
"Thanh","","dry@vinalines-shipping.com","",,""
"John","","dryanalysts@clarksons.com","",,""
"Mr. Park","","drybulk@cj.net","",,""
"Gurvinder","","drybulk@veershipping.in","",,""
"Manish","","drycargo.india@clarksons.com","",,""
"Andy","","drycargo@clarksons.ae","",,""
"Venkat","","drychart.inmar@gmail.com","",,""
"Rahul","","dryfreightops@mercuria.com","",,""
"Capt. Keith","","dryopr.aus@maestroshipping.com","",,""
"Deepak","","dsharma@kctcoalsales.com","",,""
"Prasanna","","dubai@nepa.com.hk","",,""
"Sobia","","DubaiOperations@midship.com","",,""
"Dushyant","","Dushyant.Kartik@gearbulk.com","",,""
"Mr. Dutta","","duttahs@indianoil.in","",,""
"Mr. Rao","","dvrao@naturalbleachearths.com","",,""
"Ekta","","e.dixit@uralkali-trading.com","",,""
"Eric","","ebrown@hetco.com","",,""
"Erlend","","eengelstad@marexspectron.com","",,""
"Elisabeth","","elisabeth.brum@vale.com","",,""
"Capt. Lobo","","elo@clipper-group.com","",,""
"Deepak","","energo@energoindia.com","",,""
"Eric","","eric@noblechartering.com","",,""
"Sir / M'am","","eslbulk@essar.com","",,""
"Andreas","","eurochart@euroltd.gr","",,""
"Chrisa","","evalendtankers@softway.gr","",,""
"Capt. Rajeev","","everest@vsnl.com","",,""
"Ed","","ewbarry@benline.com.sg","",,""
"Mr. Kothari","","exim@vandanaglobal.com","",,""
"Fajju","","export@rungtamines.com","",,""
"Mr. Howardkar","","exports@timblos.com","",,""
"Sir","","falcon@falconship.com","",,""
"Famina","","famina.pruthi@adm.com","",,""
"Fazal","","fazal@coalandoil.com","",,""
"Capt. Chacko","","fchacko@mllsg.com","",,""
"Fernando","","fdemartin@gerald.com","",,""
"Ms. Joy","","FDesk@angloamerican.co.uk","",,""
"Suresh","","fix@bulkmarine.com","",,""
"Rohan","","fix@shakti.com.sg","",,""
"Suyash","","fix@sivabulk.com","",,""
"Regan","","fixing@highmillion.org","",,""
"Ajay","","fixtures@ciscoships.com","",,""
"Capt. Poletti","","fp@navalmar.co.in","",,""
"Frank","","frank.zheng@unionocean.net","",,""
"Frederic","","frederic.boucaud@Transammonia.com","",,""
"Brandon","","freight@peabodyenergy.com","",,""
"Justin","","freightops.ports@edftrading.com","",,""
"Gagan","","gaganmehrish@krishnapatnamport.com","",,""
"Capt. Gajanan","","gajanan.karanjikar@targetships.com","",,""
"Capt. Gandhi","","Gandhi@Vinsight.biz","",,""
"Mr. Gandhi","","gandhikc@shreecementltd.com","",,""
"Surendra","","GargSurendra@shreecementltd.com","",,""
"Gaurav","","gaurav@quantumfertilisers.com","",,""
"Gauravi","","Gauravi.Gupta@hmel.in","",,""
"Mr. Gautam","","gautam.phukan@ipispl.in","",,""
"Mr. Sawhney","","gautam.sawhney@ipispl.in","",,""
"Gautham","","Gautham.p@lancogroup.com","",,""
"Kartik","","gemini@geminitankers.com","",,""
"Ranjan","","george.rajan@jaidrinks.com","",,""
"Tom","","george@iffco.in","",,""
"Capt. Vurgese","","george@lots-ship.com","",,""
"Capt. Fernandez","","gerard.fernandez@essar.com","",,""
"Ghazi","","GhaziNH@sabic.com","",,""
"Khalid","","GhunaimKh@Maaden.com.sa","",,""
"Mrs. Girija","","girijakbhan@gmail.com","",,""
"Girish","","girishkoulgi@nobleenergy.com","",,""
"Girish","","girishkvarma@gmail.com","",,""
"Greg","","gkukla@thiess.com.au","",,""
"Glynnis","","Glynnis.Koopman@engenoil.com","",,""
"Moteus","","goa.pas@benlineagencies.in","",,""
"Gopal","","Gopal.Krishna@adm.com","",,""
"Durga","","gpratap@gandharoil.com","",,""
"Gregory","","gregory@kitfze.biz","",,""
"Mr. Bhatia","","gsbhatia@bhatiacoalindia.com","",,""
"Goichi San","","gueda@mail.firstship.co.jp","",,""
"Gultaj","","gultaj.kanwal@oldendorff.com","",,""
"Nishith","","guptanishith@rediffmail.com","",,""
"Gurumurthy","","gurumurthy.s@chettinadcement.com","",,""
"Aiwei","","gvaops@bunge.com","",,""
"Crystal","","handy.shanghai@clarksons.com","",,""
"Domnique","","handy@brsbrokers.com","",,""
"Lefteris","","handy@carriers.gr","",,""
"Choi","","handy@samsun.co.kr","",,""
"Mr. Son","","handymax@daebo.co.kr","",,""
"Jason","","handymax@energybulk.com","",,""
"Jacy","","handymax@ivs-int.com","",,""
"Syed","","handymax@pacificcarriers.com.ca","",,""
"Miller","","handymaxpacific@cargill.com","",,""
"Capt. Harash","","harash.channa@caravel-group.com","",,""
"Mr. Haridasan","","haridasan@bharatishipyard.com","",,""
"Haris","","haris.siddiq@jsw.in","",,""
"Harish","","harish.abbey@ril.com","",,""
"Mr. Harish","","harish@tatachemicals.com","",,""
"Capt. Harpreet","","harpreet.singh@kochind.com","",,""
"Harry","","harry.yang@keytrade.ch","",,""
"Harsh","","Harsh.Jasani@trafigura.com","",,""
"Harshal","","harshal.bendre@acclimited.com","",,""
"Harshpal","","harshpal.singh@vedanta.co.in","",,""
"Harsimran","","harsimransingh@bhatiacoalindia.com","",,""
"Mr. Daneshmand","","havi@emirates.net.ae","",,""
"Hemant","","hemant@nydelresources.com","",,""
"Himanshu","","himanshu.kakkar@zuari.adventz.com","",,""
"Himanshu","","himanshu@skstpl.com.sg","",,""
"Mr. Hiren","","hiren.deshpande@jsw.in","",,""
"Izumi San","","hiroyuki.izumi@sumitomocorp.co.jp","",,""
"Hitesh","","hitesh@jindalsteel.com","",,""
"Hitesh","","hitesh@ocpindia.org","",,""
"Hitesh","","hitesh@swastikcoal.com","",,""
"Hemant","","hjoshi@coeclerici.com","",,""
"Clement","","hk@quantumfertilisers.com","",,""
"Mr. Lim.","","hklim@samsun.co.kr","",,""
"Capt. Sabarwal","","holbud@holbud.co.uk","",,""
"Mr. Varghese","","honey@bhatiacoalindia.com","",,""
"Sir","","houston@marimed.us","",,""
"Mr. Bhagat","","hpbhagat@gmail.com","",,""
"Bobby","","hrkim@onestx.com","",,""
"Mr. Mann","","hsmann@worldswindow.cc","",,""
"Huxley","","huxley.pereira@oldendorff.com","",,""
"Mr. Ashique","","IDA0062@cc.m-kagaku.co.jp","",,""
"Mr. Khan","","IKRAM.KHAN@shunshinggroup.com","",,""
"Iman","","iman.dehghan@trafigura.com","",,""
"Vinay","","imr-indonesia@imr-resources.com","",,""
"Subhro","","india.liner@benlineagencies.in","",,""
"Capt. Sanjay","","india.pas@benlineagencies.in","",,""
"Kiran","","india@ds-norden.com","",,""
"Rashi","","india_sugar@cargill.com","",,""
"Paul","","inec.pas@benlineagencies.in","",,""
"Stefano","","info@bcmsa.ch","",,""
"Simon","","info@g-ports.com","",,""
"Sir","","info@kaptanoglucorp.com","",,""
"Mr. Behari","","info@splship.com","",,""
"Mr. Padhi","","iofmum@vandanaglobal.com","",,""
"Sharad","","ir@ocpindia.org","",,""
"Mr. Gupta","","ironore@vandanaglobal.com","",,""
"Ivan","","ivan@aig-marine.com","",,""
"Mr. Abrol","","i_abrol@yahoo.com","",,""
"Jack","","Jack.lee@htmshipping.com","",,""
"Mr. Dodia","","jagdishdodia@sanghicement.com","",,""
"Jagmeet","","jagmeetmakkar@noblechartering.com","",,""
"Mr. Ahluwalia","","jahluwalia@bhatiacoalindia.com","",,""
"Mr. Jaishankar","","jai@archeangroup.com","",,""
"Jai","","jaikumar@vasishipping.com","",,""
"Rajesh","","Jain.rajesh@uttamgalva.com","",,""
"James","","james.ormerod@glencore.co.uk","",,""
"James","","James.stewart-richardson@edfman.com","",,""
"Mr. Rao","","janardhanarao@gangavaram.com","",,""
"Janice","","janice@mail.uming.com.tw","",,""
"Miyazaki San","","Japan@ampship.com","",,""
"Capt. Jasbir","","jasbir.singh@jsw.in","",,""
"Jason","","jason.qian@lsh.com","",,""
"Capt. Jaspreet","","Jaspreet.Chhabra@ldcom.com","",,""
"Jaspreet","","jaspreetkohli@gmail.com","",,""
"Jay","","jay.kim@hmm21.com","",,""
"Jayakumar","","jayakumar@seashellgroup.in","",,""
"Jayant","","jayant.kumar@vedanta.co.in","",,""
"Jayanta","","jayanta.sinha@emarsresources.com","",,""
"Jay","","Jay_Poojary@cargill.com","",,""
"Jean","","Jean-Marc.Biton@ldcom.com","",,""
"Jeam Marie","","Jean-Marie.Kelly@glencore.co.uk","",,""
"Jean","","jean.tan@livenagrichem.com","",,""
"Jesper","","jesper.Traerup@hansaheavylift.com","",,""
"Jetun","","jetun.javeri@stemcor.com","",,""
"Jean","","jfbaudry.cbb@wanadoo.fr","",,""
"Ray","","jiaxl@ampship.com","",,""
"Danny","","Jie.SongChen@gearbulk.com","",,""
"Jignesh","","jignesh.desai@jsw.in","",,""
"Mr. Lim","","jinheung.lim@hmm21.com","",,""
"Jiten","","jiten.keluskar@acclimited.com","",,""
"Jitender","","jitender.g.singh@adityabirla.com","",,""
"Jitendra","","jitendras@sabic.com","",,""
"Jitin","","jitin.bhatia@actiongroup.co.in","",,""
"Mr. Jaipal","","jjc@jjcpl.com","",,""
"Mr. Niyogi","","jk.niyogi@visaresources.in","",,""
"Jagleen","","jkaur@doehledanautic.com","",,""
"Mr. Kim","","jkkim12@dwlogistics.co.kr","",,""
"Mr. Nath","","jkn@himadri.com","",,""
"Mr. Nanda","","jm.nanda@bhushansteel.com","",,""
"Justin","","jnj@jnjtrust.co.kr","",,""
"Capt. Jonas","","jonas@paraklete.co.in","",,""
"Jonathan","","jonathan@emmsons.com","",,""
"Jose","","josepaul@factltd.com","",,""
"Jaydeep","","jroy@tatapower.com","",,""
"Jaswinder","","jsingh@bhatiacoalindia.com","",,""
"Mr. Jain","","jtc4@airtelmail.in","",,""
"Hayashi San","","jun.hayashi@mitsubishicorp.com","",,""
"Junead","","junead.mushtaq@adani.in","",,""
"Sir","","jynho@daebo.co.kr","",,""
"Kaamil","","kaamil@eastindiaenergy.sg","",,""
"Sir","","kailasan@mehtagroup.com","",,""
"Kalpana","","Kalpana.Gurumoorthy@essar.com","",,""
"Kalyan","","kalyan@vithobaglobal.com","",,""
"Mr. Sundaram","","kalyanasundaram.s@tnpl.co.in","",,""
"Santosh","","kambraths@gmail.com","",,""
"Mr. Kanani","","kananis@acti.co.in","",,""
"Jagdish","","kandla.mgr@benlineagencies.in","",,""
"Kannan","","kannan.manojavarao@total.com","",,""
"Mr. Kannan","","kannan.v@samsung.com","",,""
"Kapil","","kapil.thapar@adani.com","",,""
"Kapil","","kapil@virtuousurja.com","",,""
"Mr. Kapoor","","kapoorn@zuari.adventz.com","",,""
"Dhiraj","","kaptex@gmail.com","",,""
"Karan","","karan.kohli@frostinternational.in","",,""
"Karan","","karan.mittal@msmgroup.co.in","",,""
"Capt. Karanjit","","karanjit.singh@tcil.com","",,""
"Karthik","","karthik.d@vedanta.co.in","",,""
"Mohan","","kasarla@bancosta.it","",,""
"Kathy","","kathyliem@noblechartering.com","",,""
"Vinayak","","kayaniv2000@gmail.com","",,""
"Mr. Kedia","","kedia@maruti.co.in","",,""
"Keith","","keith.ma@trammo.com","",,""
"Ken","","ken@bary.sg","",,""
"Eric","","kfhshpg@hotmail.com","",,""
"Mr. Khera","","khera@sabicindia.com","",,""
"Mr. Park","","khpark@dyship.com","",,""
"Kirti","","kirti.gupta@cbbindia.com","",,""
"Mr. Gupta","","kk.gupta@adityabirla.com","",,""
"Raju","","kkd.mgr@benlineagencies.in","",,""
"Mr. Kaul","","kkkaul@dcmshriram.com","",,""
"Capt. Joachim","","KL@ecoship.net","",,""
"Aditya","","km.agencies@aol.com","",,""
"Mr. Madhu","","kmadhu@raincii.com","",,""
"Mr. Mohan","","kmohan@bharathicement.com","",,""
"Kavita","","kn@chellship.co.in","",,""
"Mr. Joshi","","knjoshi@iffco.in","",,""
"Mr. Rao","","knrao@knowledgegroup.in","",,""
"Manoj","","kochi.ops@benlineagencies.in","",,""
"Kontraiyandi","","Kontraiyandi.C@vedanta.co.in","",,""
"Flavian","","kopak@kopakshipping.com","",,""
"Raman","","kraman@knowledgegroup.in","",,""
"Mr. Krishna","","Krish@indiacements.co.in","",,""
"Jayendu","","krishna@drewry.co.uk","",,""
"Capt. Rajasekaran","","krs4@sanmargroup.com","",,""
"Mr. Sawakar","","ksawkar@ilpl.biz","",,""
"Mr. Nayal","","ksnayal2001@yahoo.co.in","",,""
"Mr. Raheja","","ksraheja@oorjaindo.com","",,""
"Okubo San","","Ku.Okubo@mitsui.com","",,""
"Capt. Kumar","","kumar@victore.in","",,""
"Mr. Kumar","","kumardivya@dhamraport.com","",,""
"Kunal","","kunal.kapoor@ldcom.com","",,""
"Kunal","","kunal.shah@shahcoal.com","",,""
"Kunal","","kunalp@gandharoil.com","",,""
"Capt. Ketan","","kvm@sivabulk.com","",,""
"Mani","","kyraman@yahoo.com","",,""
"Luana","","l.costantini@pbtankers.com","",,""
"Mr. Lakshminarayana","","lakshminarayana@coastalfuel.com","",,""
"Lalit","","lalit@avani.sg","",,""
"Lalit","","lalit@devenergy.in","",,""
"Mr. Lalit","","lalitkkiran@hotmail.com","",,""
"Mr. Garg","","lalmahal@lalmahal.in","",,""
"Lalu","","lalu.john@masgroup.co.in","",,""
"Laysan","","Laysan.zhang@LDCOM.com","",,""
"Sir","","LDFrtOps-Sgp@ldcom.com","",,""
"Han","","lianhung.tan@tatapower.com","",,""
"Ketan","","libraship@libraship.com","",,""
"Lily","","lily.korompis@bbenergy.com","",,""
"Jerry","","lin@cpm-world.com","",,""
"Gregoire","","liners@murship.ae","",,""
"Alex","","liuc@fjgh.com.cn","",,""
"Liz","","Liz.Shuker@brsbrokers.com","",,""
"Leo","","ll@chellship.co.in","",,""
"Lo","","London.cht@marimed-group.com","",,""
"Loretta","","loretta@mercator.in","",,""
"Lovie","","lovie.yadav@mitsubishicorp.com","",,""
"Mr. Hotwani","","lth@welspun.com","",,""
"Luke","","Luke.Banks@edftrading.com","",,""
"Luke","","Luke.Dorman@bertling.com","",,""
"Masayuki San","","m-hirayama@daio-kaiun.com","",,""
"Mohit","","m.maheshwari@royalglobalexp.com.sg","",,""
"Solomen","","m.malamion@ameropa.com","",,""
"Manish","","m.nagpal@wilsonuniverse.com","",,""
"Capt. Ram","","maa.captram@benlineagencies.in","",,""
"Srinivas","","maa.pas@benlineagencies.in","",,""
"Mohan","","maa.projects@benlineagencies.in","",,""
"Deva","","maa.system@benlineagencies.in","",,""
"Madhav","","madhav.dhrona@jsw.in","",,""
"Madhukar","","madhukar@swissniaga.com","",,""
"Mr. Chopra","","mahaveer@ashapura.com","",,""
"Mahavir","","mahavir_jain@ruchigroup.com","",,""
"Mr. Rathore","","mahendra.rathore@adani.in","",,""
"Mr. Bhardwaj","","mahesh.bhardwaj@jindalsteel.com","",,""
"Mr. Agarwal","","mahesh@bagadiya.com.sg","",,""
"Sanjiv","","mail@bulkmarine.com","",,""
"Tabrez","","mail@combi-trans.com","",,""
"Mani","","mail@ctglobal.ae","",,""
"Hanoz","","mail@fssbrokers.com","",,""
"Ritesh","","mail@mbgcommodities.com","",,""
"Jeon","","mailbox@sunwootanker.co.kr","",,""
"Atul","","malhotra@mercator.in","",,""
"Summer","","manager@diryoung.com","",,""
"Mandaar","","mandaar@fssbrokers.com","",,""
"Mangal","","mangal.bl@jaidrinks.com","",,""
"Manish","","Manish.K@ilfsindia.com","",,""
"Manish","","manish@amirafoods.com","",,""
"Manish","","manish@helmindia.com","",,""
"Manisha","","manisha.desai@odfjell.com","",,""
"Manish","","manishjain@bhatiacoalindia.com","",,""
"Capt. Menon","","manohar.menon@ambujacement.com","",,""
"Capt. Manoj","","manoj.garg@shell.com","",,""
"Manoj","","manoj.mishra@jindalsteel.com","",,""
"Manoj","","manoj.yadav@kohinoorfoods.in","",,""
"Mr. Manoj","","manojdrajani@gmail.com","",,""
"Capt. Budania","","manoj_budania@in.nykline.com","",,""
"Capt. Jolly","","manpreet.jolly@alba.in","",,""
"Mansour","","Mansour.h@ArabPotash.com","",,""
"Renee","","marine@atlshipping.com","",,""
"Amit","","marine@diamondsshipping.com","",,""
"Capt. Baig","","marineops@dhamraport.com","",,""
"Ranjan","","marketing@islworld.net","",,""
"Anton","","marketing@plstrading.ch","",,""
"All","","marketingreps@benlineagencies.com","",,""
"Marlon","","marlon.sutanu@canpotex.com","",,""
"Masila mani","","masila.mani@rudhraenergy.com","",,""
"Masood","","masood@sungroupindia.com","",,""
"Mr. Syed","","matheen@primestargroup.ae","",,""
"Mayank","","mayank.bhandari@adityabirla.com","",,""
"Mayank","","mayank.singhal@sojitz.com","",,""
"Biswajit","","mazumdaraccpl@yahoo.com","",,""
"Mr. David Cha","","mc.cha@hmm21.com","",,""
"Mr. Gupta","","mcgupta@kitfze.biz","",,""
"Mr. Shetty","","mcommercial@kudreore.com","",,""
"Mr. Bose","","mdoffice@tmilltd.com","",,""
"Mr. Swami","","meenaenterprises2012@gmail.com","",,""
"Meenu","","meenu_sawhney@cargill.com","",,""
"Gaurav","","mekatrade.asia@mekatrade.com.sg","",,""
"Gareth","","melbourne@austbulk.com","",,""
"Melih","","melih@gmdchartering.com","",,""
"Melinda","","Melinda.Fernandes@vedanta.co.in","",,""
"Mesut","","mesut.kececi@omsandenizcilik.com.tr","",,""
"Suresh","","meteornd@bol.net.in","",,""
"Mr. Meyyappan","","meyappan@indiacements.co.in","",,""
"Manish","","MGupta@peabodyenergy.com","",,""
"Michael","","michaelnagler@noblechartering.com","",,""
"Samir","","middleeast@thorcoshipping.com","",,""
"Mr. Mihir","","Mihir.Mishra@apmterminals.com","",,""
"Mineesh","","mineesh.kumar@ldcom.com","",,""
"Minoo","","minoo@devcoalindia.com","",,""
"Miny","","Miny.L@islworld.net","",,""
"Mr. Dhar","","mjdhar@bhushansteel.com","",,""
"Ahmed","","mkm@gpic.net","",,""
"Mr. Murali","","mkt@kakinadaseaports.in","",,""
"Mariana","","MLim@peabodyenergy.com","",,""
"Capt. Madhu","","mmsjbb@gmail.com","",,""
"Mr. Bhaskaran","","mnb@nagarjunagroup.com","",,""
"Naveen","","mng.mgr@benlineagencies.in","",,""
"Mr. Nayeem","","mohammad.nayeem@acclimited.com","",,""
"Mohan","","mohan.talnikar@jindalsaw.com","",,""
"Mohan","","mohan@krishnapatnamport.com","",,""
"Mr. Saleh","","mohd.saleh@itc.in","",,""
"Mohammad","","mohd@devenergy.in","",,""
"Mohit","","mohit.kalra27@gmail.com","",,""
"Mohit","","mohit@soiglobal.sg","",,""
"Mohit","","mohit@swastikcoal.com","",,""
"Mohit","","mohit@thedndgroup.com","",,""
"Morten","","Morten.petersen@viking-shipping.no","",,""
"Manish","","mpa@maerskbroker.com","",,""
"Capt. Pattarawath","","mpd@thoresen.com","",,""
"Mr. Shetty","","MPShetty@zuari.adventz.com","",,""
"Mr. Nair","","mr@sabarigroup.com","",,""
"Mr. Sharma","","MRVS@MANGALORECHEMICALS.COM","",,""
"Mohit","","msabharwal@ocsol.net","",,""
"Mayukh","","msinha@dhamraport.com","",,""
"Prasad","","msp@coromandel.murugappa.com","",,""
"Capt. Wadhwa","","mswadhwa@mercator.in","",,""
"Mukesh","","mukesh.rpatel@jsw.in","",,""
"Mukesh","","mukesh.verma@rawmet.co.in","",,""
"Mukesh","","mukesh@shardamaa.com","",,""
"Mukul","","mukul.saran@glencore.co.in","",,""
"Mukul","","mukul@vinergy.in","",,""
"Mukund","","mukund.m.dongre@relianceada.com","",,""
"Thomas","","mum.mgr@benlineagencies.in","",,""
"Ramesh","","mum.ops@benlineagencies.in","",,""
"Anup","","mum.pas@benlineagencies.in","",,""
"Nivedita","","mumbai.coalops@glencore.co.in","",,""
"Roshan","","mumbai.ops@seaprosperltd.com","",,""
"Rakesh","","mumbai@maerskbroker.com","",,""
"Pankaj","","mumbai@marimed-group.com","",,""
"Capt. Gorowara","","mumbai@maritechcommercial.com","",,""
"Jaywant","","mumbai@oxbow.com","",,""
"Munish","","munish.kapur@jalindia.co.in","",,""
"Munish","","munishsehgal@bsgroup.in","",,""
"Murali","","murali.k@islworld.net","",,""
"Mr. Varier","","MuraliV@coromandel.murugappa.com","",,""
"Murtaza","","murtaza@mgldubai.com","",,""
"Mr. Murty","","murthysvbs@coromandel.murugappa.com","",,""
"Muthu","","Muthukumaran.Rajendran@oldendorff.com","",,""
"Mayank","","mv.vargia@visaresources.in","",,""
"Mr. Dutt","","n.dutt@mitsui.com","",,""
"Jayagopal","","n.jayagopal@sumitomocorp.co.jp","",,""
"Neelam","","N.Raturi@mitsui.com","",,""
"Nishant","","n.thakur@mitsui.com","",,""
"Yamazaki San","","Na.Yamazaki@mitsui.com","",,""
"Freddy","","nadirshahf@acti.co.in","",,""
"Mr. Nagarajan","","nagarajan@tcrcgroup.com","",,""
"Capt. Nandan","","nandan.rao@rudhraenergy.com","",,""
"Mr. Nanthakumar","","nanthakumar@devihkg.com","",,""
"Naren","","Narendra@mercator.in","",,""
"Naresh","","naresh.pandya@apmterminals.com","",,""
"Mr. Naresh","","naresh@ambikacoal.com","",,""
"Mr. Natarajan","","natarajan1503@gmail.com","",,""
"Mr. Natarajan","","Natarajan@adcoal.com","",,""
"Naveen","","naveen.jain@emmsons.com","",,""
"Mr. Naveen","","naveen@sarawagi.com","",,""
"Navin","","navin.chandrasekharan@oldendorff.com","",,""
"Navjot","","navjot.saini@IMR-resources.com","",,""
"Shubham","","nawab@bhatiacoalindia.com","",,""
"Navin","","nbh@masterbulk.com.sg","",,""
"Mr. Chaturvedi","","nchaturvedi@technip.com","",,""
"Nelson","","ndias@dmcc.com","",,""
"Mr. Joshi","","necomumbai@necoindia.com","",,""
"Neeraj","","neeraj.patel@sanghicement.com","",,""
"Neeraj","","neeraj.sharma@dbpower.in","",,""
"Mr. Negi","","negi-ps@marubeni.com","",,""
"Subhash","","newdelhi@trammo.com","",,""
"Natashia","","ngonsalves@sucden.ae","",,""
"Mr. Jalal","","nic@eim.ae","",,""
"Sajjad","","nic@emirates.net.ae","",,""
"Nigel","","nigel.bell@bellshipping.com","",,""
"Nikhil","","nikhil_shah@anikinternational.com","",,""
"Nilesh","","nileshpathak@thisisnoble.com","",,""
"Dr. Nilkamal","","nilkamal@sungroupindia.com","",,""
"Nimish","","nimish.mishra@vedanta.co.in","",,""
"Nippy","","nippy_singh@slecoal.com","",,""
"Niraj","","niraj.kumar1@pclworld.net","",,""
"Nirmal Ji","","nirmal.reddy@itc.in","",,""
"Nishant","","Nishant.Chavda@oldendorff.com","",,""
"Nitish","","nitesh@dssi-in.com","",,""
"Nitin","","nitin.deshmukh@jsw.in","",,""
"Mr. Nitin","","Nitin.M.Ambhaikar@ril.com","",,""
"Nitin","","nitinc@mehtagroup.com","",,""
"Nitish","","nitish.kothiyal@indaniglobal.com","",,""
"Nivedita","","nivedita.ghosh@inspectorate.co.in","",,""
"Nivedita","","nivedita.malhare@imerys.com","",,""
"Nandkishore","","nkd@ibcgroup.in","",,""
"Mr. Bhartiya","","nmbhartiya@electrosteel.com","",,""
"Anil","","nmc@navchart.in","",,""
"Capt. Chander","","nola@maritechcommercial.com","",,""
"Inoue San","","Nori.Inoue@mitsui.com","",,""
"Hoang","","nosco@fpt.vn","",,""
"Mark","","nsi@nobleshipping.com","",,""
"Capt. Mudaliar","","nvm@fivestarship.com","",,""
"Nitish","","nw@guptaglobal.com","",,""
"Mr. Zhang","","ny@nyshipping.net","",,""
"Capt. Santhakumar","","obulk@emirates.net.ae","",,""
"Mr. Vijayan","","office@uexp.net","",,""
"Mr. Petrov","","office@vstvarna.com","",,""
"Ojas","","ojas@rhodiumresources.com","",,""
"Mr. Sharma","","op.sharma@jindalsaw.com","",,""
"Mr. Wang","","op@oceanwealthship.com","",,""
"Wisanto","","operation@blt.co.id","",,""
"Bhuvaraagan","","OPERATION@IOFSINGAPORE.COM","",,""
"Jimmy","","operation@itccorp.com.vn","",,""
"Raman","","operation@kundangroup.com","",,""
"Mehmet","","operation@mardas.com.tr","",,""
"Capt. Nikolaos","","operation@marmaras-nav.gr","",,""
"Dai","","operation@nasco.com.cn","",,""
"Akshay","","operation@platinabulkers.com","",,""
"Mr. Fu","","operation@qfshipping.net","",,""
"Capt. Gu","","operation@sinoeast.com","",,""
"Capt. Zhao","","operation@solebay.com","",,""
"Ms.Shang","","operation@uniwellshipping.com","",,""
"Ibrahim","","operationmardeniz@mardas.com.tr","",,""
"Carsten","","Operations.Singapore@westernbulk.com","",,""
"Mrs. Katerina","","operations@agiamar.gr","",,""
"Capt. Karapiperis","","operations@andriaki.gr","",,""
"Abdullah","","operations@aramcotrading.com","",,""
"Rakesh","","operations@asree.com","",,""
"Panagiotis","","operations@bmc.gr","",,""
"Leonardos","","operations@elmiratankers.com","",,""
"Mr. Sreenivasa","","operations@finaval.com","",,""
"Brent","","OPERATIONS@LOTOCEAN.COM","",,""
"Carlo","","operations@miboship.it","",,""
"Stefano","","OPERATIONS@MIDSHIP.COM","",,""
"Sir","","operations@murship.ae","",,""
"Capt. Koo","","operations@oceantankers.com.sg","",,""
"Annemarie","","operations@oxbow.com","",,""
"Gennadiy","","operations@phaethon.com.ua","",,""
"Sonali","","operations@radiant.ae","",,""
"Sanjay","","operations@seshipping.com","",,""
"Robbert","","operations@swissmarine.ch","",,""
"Cuong","","operations@vinashinlines.com","",,""
"Oyvind","","operations@westernbulk.com","",,""
"Prachi","","operations@womarpools.com","",,""
"Capt. Bose","","opns.shipping@aegisbusiness.net","",,""
"Pooja","","ops-bulk-hmxsgp@oldendorff.com","",,""
"Mary","","ops-pmx-sgp@oldendorff.com","",,""
"Prabha","","ops.bulk@scorpiogroup.net","",,""
"Joyce","","ops.chrtcn@dhl.com","",,""
"Luc","","ops.handy@cobelfret.com","",,""
"Capt. Liang","","ops.handymax@pacificcarriers.com.sg","",,""
"Devendra","","ops.mumbai@sivabulk.com","",,""
"Christine","","ops.panamax@pacificcarriers.com.sg","",,""
"Walid","","ops.pmax@cldn.com","",,""
"Milind","","ops.pmax@scorpiogroup.net","",,""
"Lena","","ops@ark.co.kr","",,""
"Capt. Didar","","ops@brsml.com","",,""
"Ghanshyam","","ops@coalnergy.com","",,""
"Eric","","ops@eastportmar.com","",,""
"Jitesh","","ops@emeraldmaritime.net","",,""
"Mr. Joseph","","ops@etatns.com","",,""
"Ms. Kristy Le","","ops@falcontms.com","",,""
"Kiran","","ops@fearnleys.co.th","",,""
"Ashlyn","","ops@fiveocean.co.kr","",,""
"Mathias","","ops@hbc-hamburg.com","",,""
"Candy","","ops@huahai-ship.com","",,""
"Sudhir","","Ops@islworld.net","",,""
"Vinodh","","ops@jupitermarine.in","",,""
"Vinay","","ops@marcotrans.in","",,""
"Capt. Mehmet","","ops@medbrokerage-ny.com","",,""
"Timothy","","ops@minmetals.com","",,""
"McLaren","","ops@minsco-zj.com","",,""
"Munish","","ops@norvicshipping.com","",,""
"Gopalakrishnan","","ops@plutus-asia.com","",,""
"Bhadekar","","ops@saigalseatrade.com","",,""
"Emad","","ops@samin.com.cy","",,""
"Alex","","ops@seatrek.com.sg","",,""
"Capt. Nayak","","ops@skstpl.com.sg","",,""
"Ihsan","","ops@sot.ae","",,""
"Capt. Tiwari","","ops@ssgil.com","",,""
"Peggy","","ops@stcl.com.tw","",,""
"Hien","","ops@sunriseship.vn","",,""
"Fabio","","ops@t-bulk.com","",,""
"Srijeet","","ops@tatanykshipping.com","",,""
"Capt Ranjan","","ops@vegaship.ae","",,""
"Mr. Sung","","ops@vertexshipping.co.kr","",,""
"Ajay","","opsasia@intermarineusa.com","",,""
"Ms. Smita","","opsbulk@mllsg.com","",,""
"Capt. Rodolfo","","opsdept@nordstrand.gr","",,""
"Sir","","Opsgroup2@dynacomtm.com","",,""
"Sharma ji","","opskvs@gmail.com","",,""
"Mr. Om Prakash","","op_mahawar@ruchigroup.com","",,""
"Mr. Nafrey","","orion@emirates.net.ae","",,""
"Lu","","own@tuofuocean.com","",,""
"Capt. Pascal","","P.Boulanger@Conti7.be","",,""
"Capt. Lasso","","p.losso@bmshipping.com","",,""
"Capt. Mishra","","Padmini.Mishra@essar.com","",,""
"Gerald","","panamax@pacificcarriers.com.sg","",,""
"John","","panamaxops@swissmarine.ch","",,""
"Capt. Pankaj","","pankaj.nirmal@jsw.in","",,""
"Pankaj","","pankaj@solarexplosives.com","",,""
"Pankaj","","pankaj@virtuousurja.com","",,""
"Pankaj","","pankajk@mmtclimited.com","",,""
"Pankaj","","pankajkakkar@ameropa.com","",,""
"Paolo","","paolobovenga@clarksons.it","",,""
"Capt. Mantri","","paradip@ericsonandrichards.com","",,""
"Parag","","parag.k@trimexgroup.com","",,""
"Col. Parag","","parag.srivastava@adani.com","",,""
"Paras","","paras.goel@jindalsteel.com","",,""
"Paresh","","paresh_khandelwal@anikinternational.com","",,""
"Parikshit","","parikshit.desai@guptaglobal.com","",,""
"Parmeet","","parmeet_Bawa@in.nykline.com","",,""
"Parthiban","","parthiban@coreminerals.in","",,""
"Christian","","pas@bbg-shipmanagement.com","",,""
"Mr. Agarwal","","patomd@agarwalcoal.com","",,""
"Paul","","paul.lee@imerys.com","",,""
"Pavan","","pavan.doddihal@vedanta.co.in","",,""
"Pawan","","pawanpatidar@bhatiacoalindia.com","",,""
"Pawan","","pawan_bhatia@cargill.com","",,""
"Vasudev","","pb.vasudev@mitsubishicorp.com","",,""
"Bala","","pba@murship.com","",,""
"Capt. Chatterjee","","pbchatterjee@gmail.com","",,""
"Bibhu","","pdp.ops@benlineagencies.in","",,""
"Perry","","PERRY.MOK@KOCHIND.COM","",,""
"Prashant","","pgarg@kctcoalsales.com","",,""
"Mr. Kumar","","phani_jajam@yahoo.co.in","",,""
"Capt. Philip","","philip@lots-ship.com","",,""
"Capt. Phillip","","phillip.ng@icofgroup.com","",,""
"Pinaki","","pinaki@royalglobalexp.com.sg","",,""
"Nihar","","pioneercombines@gmail.com","",,""
"Piyush","","Piyush.Mishra@adani.com","",,""
"Piyush","","piyush_mehrotra@cargill.com","",,""
"Mr. Anand","","pkinternational@pki.co.in","",,""
"Pradeep","","pkm@purelife.in","",,""
"Prasenjit","","pmaity@radiant.ae","",,""
"Mr. Manian","","pmanian@ibpil.com","",,""
"Oliver","","pmax@lightship.dk","",,""
"Purnima","","pmk@gibunkering.com","",,""
"Kishore","","Pmx@brsbrokers.com","",,""
"Surendran","","pn.surendran@glencore.co.in","",,""
"Pooja","","Pooja.Patil@oldendorff.com","",,""
"Sir","","Postfix@jindalvector.com","",,""
"Capt. Srivastava","","postfix@libraship.com","",,""
"Nopphong","","postfix@preciousshipping.com","",,""
"Sunil","","power@tatapowertrading.com","",,""
"Prashant","","pp@amarante.com.sg","",,""
"Mr. Biswal","","pplsite_pop@paraphos.com","",,""
"Vikram","","ppl_comml@paraphos.com","",,""
"Mr. Vikramjit","","ppl_snd_bbsr@paraphos.com","",,""
"Prabhu","","prabhu.m@indiacements.co.in","",,""
"Prabir","","prabir@sawitholdings.com","",,""
"Capt. Gaur","","pradeepgaur@krishnapatnamport.com","",,""
"Capt. Pradeep","","pradeep_correa@greatship.com","",,""
"Capt. Prakash","","prakash_correa@greatship.com","",,""
"Pralabh","","pralabh.bhargava@riotinto.com","",,""
"Pranav","","Pranav.Khurana@ldcom.com","",,""
"Pranay","","pranayshukla@mercuria.com","",,""
"Pran","","prankumar@bsglobalresources.com","",,""
"Sanjay","","prasad104@gmail.com","",,""
"Prasanna","","Prasanna_kumar@cargill.com","",,""
"Prasetyo","","prasetyo.dtpower@gmail.com","",,""
"Prashant","","Prashant.bhandari@renukaindo.com","",,""
"Pratik","","pratik@royalglobalexp.com.sg","",,""
"Pravin","","pravin.yadav@ldcom.com","",,""
"Preeti","","preeti.grover@mosaicco.com","",,""
"Prem","","prem@voyagebulk.com","",,""
"Mr. Premkumar","","Premkumar@Vedanta.Co.In","",,""
"Capt. Pritam","","pritam@gangavaram.com","",,""
"Prithvi","","prithvi.mathur@cbbindia.com","",,""
"Jessine","","product@sk.com","",,""
"Mr. Aggarwal","","psons@psons.com","",,""
"Mr. Saini","","pssaini@kjcommoditynews.com","",,""
"Vinayak","","publication@fbspl.com","",,""
"Pulkit","","pulkit.sharma@vedanta.co.in","",,""
"Puneet","","puneet@southernpacific.in","",,""
"Mr. Saravanan","","purchase.fuel@tnpl.co.in","",,""
"Mr. Sharma","","purchase@gvk.com","",,""
"Mr. Siddu","","purchase@vssil.co.in","",,""
"Phil","","pz@augusta-energy.com","",,""
"Mr. Kumar","","p_kumar@ruchigroup.com","",,""
"Qifan","","qifanfu@mercuria.com","",,""
"Rashneek","","r.kher@uralkali-trading.com","",,""
"Capt. Narasimhan","","r.narasimhan@indiacements.co.in","",,""
"Rahul","","r.tiwari@mitsui.com","",,""
"Raghu","","raghu.a@krishnapatnamport.com","",,""
"Rahil","","rahil.shaikh@edfmanindia.com","",,""
"Capt. Rahul","","rahul.bhargava@essar.com","",,""
"Mr. Saxena","","rahul@ananke.in","",,""
"Rahul","","rahul@bsglobalresources.com","",,""
"Mr. Sarawagi","","rahul@sarawagi.com","",,""
"Rahul","","rahulmitra@tatasteel.com","",,""
"Raj","","Raj.Vamshee@relianceada.com","",,""
"Raj","","raj@maxresources.org","",,""
"Mr. Hathi","","raj@porbandarcoal.com","",,""
"Raja","","raja@pclworld.net","",,""
"Capt. Rajagopalan","","rajagopalan.v@trimexgroup.com","",,""
"Rajan","","rajansarin@gmail.com","",,""
"Rajaram","","rajaram.prabhu@hctrading.com","",,""
"Rajat","","rajat.ahluwalia@adityabirla.com","",,""
"Rajat","","rajat@ocpindia.org","",,""
"Rajbandhu","","RajBandhu.Santosh@vedanta.co.in","",,""
"Rajeev","","rajeev.banga@jindalsaw.com","",,""
"Rajeev","","rajeev.mishra@visaindo.net","",,""
"Mr. Nath","","rajeev.nath@kyori.in","",,""
"Rajender","","rajender.kumar@vale.com","",,""
"Mr. Rajendra","","rajendra.singh@adani.in","",,""
"Rajesh","","rajesh.km@trimexgroup.com","",,""
"Rajesh","","rajesh.sundaram@jsw.in","",,""
"Rajiv","","rajiv@enrsingapore.com","",,""
"Mr. Rajiv","","Rajivchat@peclimited.com","",,""
"Mr. Rajeev","","rajivkumar@hpcl.co.in","",,""
"Rajiv","","rajivsoni@flameindia.in","",,""
"Mr. Rajnikant","","rajnikant.rai@itc.in","",,""
"Rajnish","","rajnish.a@dssi-in.com","",,""
"Rajnish","","rajnish.mandal@sumitomocorp.co.jp","",,""
"Rakesh","","rakesh.chaudhary@jsw.in","",,""
"Rakesh","","rakesh.parkar@renukasugars.com","",,""
"Rakesh","","rakesh@ankurfoods.com","",,""
"Rakesh","","rakesh@kitfze.biz","",,""
"Rakesh","","rakesh@rnrholdings.net","",,""
"Mr. Ram","","ram@pel.in","",,""
"Mr. Ramachandran","","ramachandran.s@adityabirla.com","",,""
"Mr. Ramakrishna","","ramakrishna.d@anrakaluminium.in","",,""
"Ram","","ramchandran.nair@libertyhouseuk.com","",,""
"Ramesh","","rameshkona@yahoo.com","",,""
"Rami","","rami.a@ArabPotash.com","",,""
"Randhir","","randhir.hundal@gearbulk.com","",,""
"Ranjan","","ranjan.chaudri@adaniglobal.in","",,""
"Ranjan","","ranjan.choudhury@hpl.co.in","",,""
"Ranjan","","ranjan.kumar@lancogroup.com","",,""
"Mr. Ravi","","rankers@rankers.in","",,""
"Mr. Rao","","rao@adcoal.com","",,""
"Rashmi","","rashmi.chavan@jsw.in","",,""
"Mr. Patra","","rashmiranjan.patra@jsw.in","",,""
"Rathinavelu","","rathinavelu@coastalfuel.com","",,""
"Ravi","","ravi.gupta@adani.in","",,""
"Ravi Ji","","ravi.mishra@indaniglobal.com","",,""
"Ravi","","Ravi.Satpathy@gmrgroup.in","",,""
"Mr. Kumar","","ravi@peclimited.com","",,""
"Ravi","","ravindra.thakur@glencore.co.in","",,""
"Ravi","","ravishanker@peclimited.com","",,""
"Mr. Ravi","","rbpellets@gmail.com","",,""
"Mr. Chopra","","rchopra@stc.gov.in","",,""
"Randolph","","rd@tatapower.com","",,""
"Ramesh","","rda@mife.com.hk","",,""
"Capt. Deshwal","","rdeshwal@doehledanautic.com","",,""
"Robert","","rdl@murship.com","",,""
"Capt. Reddy","","reddy@solymcarriers.com","",,""
"Capt. Reddy","","reddy@vistaarshipping.com","",,""
"Reena","","reena_gomes@nsail.com","",,""
"Kian","","research@oldendorff.com","",,""
"Richa","","richakukreja@bhatiacoalindia.com","",,""
"Richard","","richard@intermarineusa.com","",,""
"Richard","","richard@oorjaindo.com","",,""
"Rishabh","","rishabh@saraogiudyog.com","",,""
"Rishap","","rishap.kapoor@kyori.in","",,""
"Rishi","","rishi@bhushansteel.com","",,""
"Ms Riya","","riyagupta@tatasteel.com","",,""
"Mr Sapapathi","","Rk.Sapapathi@vedanta.co.in","",,""
"Radhakrishna","","rk@devenergy.in","",,""
"Mr. Chawla","","rkchawla@iffco.in","",,""
"Mr. Chopra","","rkchopra@westcoastpaper.com","",,""
"Capt. Rahul","","rkr@murship.com","",,""
"Ramji","","Rkrishnan@mict.poports.co.in","",,""
"Raman","","rkt@guptaglobal.com","",,""
"Rohan","","Rohan.Bhuta@ameropa.com","",,""
"Rohit","","Rohit.bhatia@oldendorff.com","",,""
"Mr. Chopra","","rohit.chopra@mitsubishicorp.com","",,""
"Rohit","","Rohit@mcscoal.com","",,""
"Rohit","","rohit@peclimited.com","",,""
"Mr. Bedi","","rohit@sunfze.com","",,""
"Rajeev","","rp@starcomresources.net","",,""
"Capt. Raafat","","rquddos@adnatcongsco.ae","",,""
"Rajeev","","rsinha@iclfertindia.com","",,""
"Rajesh","","rthapar@kctcoalsales.com","",,""
"Mr. Singh","","ru.singh@tciseaways.com","",,""
"Rukhen","","rukhen.gill@asiaenergyservice.com","",,""
"Mr. Goswami","","rungta_cal@sify.com","",,""
"Rupa","","rupa.rahate@dufercoasia.com","",,""
"Rupesh","","rupesh.belose@jsw.in","",,""
"Sato San","","Ryo.Sato@mitsui.com","",,""
"Azuki San","","S.Azuki@mitsui.com","",,""
"Capt. Chakravarty","","s.chakraborty@klaveness.com","",,""
"Sameer","","S.Garg@mitsui.com","",,""
"Capt. Patnaik","","S.Patnaik@islworld.net","",,""
"Pradeep","","s.pradeep@wilsonuniverse.com","",,""
"Senthil","","S.Senthilkumar@vedanta.co.in","",,""
"Stefan","","s.stockfisch@helmag.com","",,""
"Anurag","","SACHDEVA@INDIANOIL.IN","",,""
"Sachin","","sachin.nimkar@adityabirla.com","",,""
"Sachin","","sachin.singh@gulfpetrochem.com","",,""
"Sachin","","Sachin.upoor@al-ghurair.com","",,""
"Sachin","","sachin@devenergy.in","",,""
"Mr. Garg","","sachingarg@iffco.in","",,""
"Sachin","","sachin_matpal@cargill.com","",,""
"Mr. Reddy","","saddalae@coastalfuel.com","",,""
"Saikat","","saikatband@tatasteel.com","",,""
"Sally","","Sally.Tan@adm.com","",,""
"Sambit","","Sambit.Pradhan@kochind.com","",,""
"Mr. Pradhan","","Sambit.Pradhan@vedanta.co.in","",,""
"Sameer","","sameer.kumbhar@imerys.com","",,""
"Sameer","","sameer.mishra@vale.com","",,""
"Sameer","","sameer.panwar@caravel-group.com","",,""
"Samiiip","","samiiip@applecoal.co.in","",,""
"Sampath","","sampath.bommu@vedanta.co.in","",,""
"Sam","","samuel.fernandes@tauriansteel.com","",,""
"Saibul","","samukherjee@tatachemicals.com","",,""
"Sandeep","","sandeep.kalia@stemcor.com","",,""
"Sandeep","","sandeep.kothari@binani.net","",,""
"Sandeep","","sandeep.mathur@maruti.co.in","",,""
"Sandeep","","sandeep.mehta@adani.In","",,""
"Mr. Misra","","sandeep.misra@sci.co.in","",,""
"Capt. Phadke","","Sandeep.Phadke@essar.com","",,""
"Sandeep","","sandeep@pclworld.net","",,""
"Sandeep","","sandychauhan@belorfert.ru","",,""
"Sanjay","","sanjay.baid@adityabirla.com","",,""
"Sanjay","","Sanjay.Chauhan@relianceada.com","",,""
"Sanjay","","sanjay.dutta@adani.in","",,""
"Capt. Sanjay","","Sanjay.Kumar1@essar.com","",,""
"Sanjay","","sanjay.prakash@reiagro.com","",,""
"Sanjay","","sanjay.sighat@rwe.com","",,""
"Sanjay","","sanjay.singh5@essar.com","",,""
"Sanjay Ji","","sanjay.tewari@jkcement.com","",,""
"Sanjay","","sanjay.tomar@rudhraenergy.com","",,""
"Sanjay","","sanjay@adani-global.com","",,""
"Sanjay","","sanjay@sara-intl.com","",,""
"Sanjay","","sanjaysingh@kribhco.net","",,""
"Sanjeev","","sanjeev.kumar@indaniglobal.com","",,""
"Capt. Sanjiv","","sanjiv@rawmet.co.in","",,""
"Sankhadeb","","sankhadeb.chatterjee@emarsresources.com","",,""
"Mr. Sanjiv","","sanrek@yahoo.com","",,""
"Santosh","","santosh.kr@vedanta.co.in","",,""
"Santosh","","santoshk@ashapura.com","",,""
"Saptarsi","","Saptarsi.Das@vedanta.co.in","",,""
"Mr. Ramesh","","saraogiudyog@eth.net","",,""
"Sarat","","sarat@mpallonjigroup.com","",,""
"Sharath","","sarath.kumar@gimpex.co.in","",,""
"Satish","","sathish@trimexgroup.com","",,""
"Satish","","satish.chandra@indusresources.biz","",,""
"Satish","","satish.pathania@mcscoal.com","",,""
"Mr. Thyaturath","","satish.thayapurath@vedanta.co.in","",,""
"Sathish","","satish@sarashgroup.com","",,""
"Satya","","satya.opg@gmail.com","",,""
"Satya","","satya@brukaanship.com","",,""
"Satyajit","","satyajit.singh@worldswindow.cc","",,""
"Saugat","","Saugat.Das@vedanta.co.in","",,""
"Saumit","","saumit.ghosh@amirafoods.com","",,""
"Saurabh","","saurabh_nakra@cargill.com","",,""
"Mr. Sawant","","sawantss@indianoil.in","",,""
"Capt. Bajpai","","sbajpai@adnatcongsco.ae","",,""
"Sanjeev","","sbu@sivabulk.com","",,""
"Mr. Chandrasekhar","","schandrasekar@cpcl.co.in","",,""
"Capt. D'Costa","","sd@chellship.co.in","",,""
"Sanjeev","","sdhakre@paraphos.com","",,""
"Capt. Nishiyama","","seafarer@fmarine.co.jp","",,""
"Gary","","sealand@sealanduk.com","",,""
"Guna","","sekhar@svansolutionz.com","",,""
"Serdar","","serdar.kuruoglu@hctrading.com","",,""
"Mr. Sethna","","sethna@rankers.in","",,""
"Shankar","","sganesh@ariesagro.com","",,""
"Mr. Dastidar","","sgd.mm@vizagsteel.com","",,""
"Capt. Sanjeev","","sgupta@mercuria.com","",,""
"Mr. Gupta","","sgupta@paraphos.com","",,""
"Mr. Ismail","","shaikimran@petronas.com.my","",,""
"Shailendra","","shailendra@agarwalcoal.com","",,""
"Shailesh","","shailesh@drewry.co.uk","",,""
"Shailesh","","shailesh_singh@welspun.com","",,""
"Shankar","","shankar.chaudhary@ldcom.com","",,""
"Ravi","","shanmughamr@maaden.com.sa","",,""
"Sharat","","sharat.gupta@cbbindia.in","",,""
"Shashank","","shashank@ptcindia.com","",,""
"Shashikant","","shashikant.sengar@jsw.in","",,""
"Mr. Sharma","","shashikant.sharma@jsw.in","",,""
"Shaurya","","shaurya.pandey@damco.com","",,""
"Shawn","","shawnyang@bright-ruby.com","",,""
"Sheikher","","sheikherkhirbat@gmail.com","",,""
"Shekhar","","shekhar@ptmaple.com","",,""
"Gloria","","shg.pas@benline.com.cn","",,""
"Ramesh","","ship@sanmargroup.com","",,""
"Naveen","","shipops@adani.com","",,""
"Dean","","shipops@manshipping.co.uk","",,""
"Albert","","shipping@agrocorp.com.sg","",,""
"Jeffrey","","shipping@angelshipping.com.hk","",,""
"Ram","","shipping@bulkcom.com","",,""
"Nurul","","shipping@deshbandhugroup.com.bd","",,""
"Mr. Ramakrishnan","","shipping@devcoalindia.com","",,""
"Danilo","","shipping@duferco.com","",,""
"Riccardo","","shipping@flamesa.ch","",,""
"Blasius","","shipping@havi.ae","",,""
"Andy","","shipping@hermes-marine.com","",,""
"Mr. Mithal","","shipping@hopp.biz","",,""
"Vijay","","shipping@marshallproduce.com","",,""
"Dinesh","","shipping@mpallonjigroup.com","",,""
"Arijit","","shipping@sot.ae","",,""
"Shiraz","","shiraz@emmsons.com","",,""
"Shirish","","shirish.phatak@olamnet.com","",,""
"Shishir","","Shishir.R.Kumar@relianceada.com","",,""
"Shishir","","shishir@agrocorp.com.sg","",,""
"Shishir","","shishir@fuelcogroup.com","",,""
"Shiv","","shiv.shankar@adani.com","",,""
"Mr. Bhardwaj","","shiva.agro2012@gmail.com","",,""
"Shouvik","","shouvik@pclworld.net","",,""
"James","","shp.operation@sinom.com","",,""
"Vinod","","shriharee_impex@rediffmail.com","",,""
"Mr. Burman","","shrikantburman@adhunikgroup.co.in","",,""
"Siddharth","","siddharth.choudhary@adityabirla.com","",,""
"Sievers","","SieversT@toepfer.com","",,""
"Micheal","","sinall@wlshipping.com","",,""
"Aman","","singal.aman@dalmiabharat.com","",,""
"Capt. Shahid","","singapore@nobpac.com","",,""
"Steven","","singhandyops@riotinto.com","",,""
"Mr. Ranjeet","","singhranjeet@indianoil.in","",,""
"Lionel","","singma@singmalloyd.com","",,""
"Deepak","","sing_handy@cargill.com","",,""
"Mr. Sivaraman","","sivaraman@binani.net","",,""
"Mr. Kim","","sjm@samjoomaritime.com","",,""
"Mr. Nayer","","sjnayer@paraphos.com","",,""
"Mr. Maji","","sk.maji@sci.co.in","",,""
"Mr. Nigam","","sk.nigam@jalindia.co.in","",,""
"Capt. Krishnanmurthy","","sk38@sanmargroup.com","",,""
"Sandeep","","skalia@alphanr.com","",,""
"Sidharth","","skasera@mercuria.com","",,""
"Mr. Bishi","","skbishi@stc.gov.in","",,""
"Mr. Rao","","sketineni@meenakshienergy.com","",,""
"Mr. Jhunjhunwala","","skj@ammalay.com","",,""
"Mr. Kulkarni","","skkulkarni@rcfltd.com","",,""
"Capt. Mohapatra","","skmohapatra@iffco.in","",,""
"Mr. Patnaik","","skpatnaik@indianoil.in","",,""
"Anupam","","sldindia@marketsindia.com","",,""
"Mr. Malankar","","sm@chellship.co.in","",,""
"Mr. Menghani","","sm@kcmaritime.co.in","",,""
"Dr. Maheshwari","","smaheshwari@kribhco.net","",,""
"Surinder","","smkhannain@yahoo.com","",,""
"Mr. Sankar","","smm-cictl@chettinad.com","",,""
"Sumeru","","snh@vitol.com","",,""
"Capt. Sunil","","snp@straitship.com","",,""
"Capt. Agarwal","","solcal@apeejaygroup.com","",,""
"Sophia","","sophia.asma@ssgil.com","",,""
"Sanjay","","SP.Junghare@zuari.adventz.com","",,""
"Mr. Padala","","SPadala@vinmar.com","",,""
"Capt. Deshmukh","","spd@crestmaritime.com","",,""
"Mr. Raja","","sraja@hpcl.co.in","",,""
"Mr. Reddy","","srajagopalareddy@nagarjunagroup.com","",,""
"Mr. Ramesh","","sramesh@jkmail.com","",,""
"Mr. Reddy","","sreenivasa.reddy@olamnet.com","",,""
"Sandeep","","srelan@belorfert.ru","",,""
"Shridhar","","sridhar.more@essar.com","",,""
"Sridhar","","sridhar@devenergy.in","",,""
"Mr. Sridhar","","sridharn@coastalfuel.com","",,""
"Srinagesh","","srinagesh@transcomm.co","",,""
"Srinivasan","","srindia@stevinrock.ae","",,""
"Sriram","","sriram@admisi.in","",,""
"Mr. Satpathy","","ssatpati@srf.com","",,""
"Mr. Bhatia","","ssbhatia@naffikana.com","",,""
"Sagar","","ssen2@coalindia.in","",,""
"Satya","","ssingh@kctcoalsales.com","",,""
"Manoj","","ssm@sivabulk.com","",,""
"Mr. Swapnil","","ssoedubai.chartering@adityabirla.com","",,""
"Vikas","","ssoedubai.operations@adityabirla.com","",,""
"Mr. Sandhawalia","","sss@potindia.com","",,""
"Sarah","","ssunyeh@ocean11.co.kr","",,""
"Stanley","","stanley@goacarbon.com","",,""
"Mr. Rai","","starchartering@starshippinggroup.com","",,""
"Raman","","steel@monarchinternational.biz","",,""
"Stephanie","","stephanie@kingstarship.com","",,""
"Stephen","","stephen.kelk@gearbulk.com","",,""
"Steven","","Stevengoh@omegra.sg","",,""
"Capt. Sharad","","stripathi@copashipping.com","",,""
"Stuart","","Stuart.Kissen@glencore.co.uk","",,""
"Capt. Mohapatra","","suavechartering@yahoo.in","",,""
"Subhash","","subhash.sharma@sanghicement.com","",,""
"Capt. Subhash","","subhash@valencia-sg.com","",,""
"Subhash","","subhashmittal@marketsindia.com","",,""
"Mr. Kamath","","sudesh.kamath@odfjell.com","",,""
"Sudha","","sudha.malhotra@riotinto.com","",,""
"Capt. Sudhansh","","sudhansh.gupta@ambujacement.com","",,""
"Sudhansh","","sudhansh.gupta@relianceada.com","",,""
"Sudhir","","sudhir.nair@jindalvector.com","",,""
"Sudip","","sudip@pclind.net","",,""
"Mr. Bakshi","","sudip@sail-steel.com","",,""
"Capt. Pohonerkar","","Suhas.pohonerkar@adityabirla.com","",,""
"Capt. Panda","","sukant_panda@mail.com","",,""
"Sundip","","sundip@dssi-in.com","",,""
"Sir","","sundo@sundoship.com","",,""
"Suneet","","suneet@rawmet.co.in","",,""
"Sunil","","Sunil.bhatia@apmterminals.com","",,""
"Nair","","sunil.nair@omniships.com","",,""
"Sunil","","sunil.toshniwal@essar.com","",,""
"Sunil","","sunil@aavanti.com","",,""
"Sunil","","sunil@gimpex.com","",,""
"Sunil","","sunil@transglobedmcc.com","",,""
"Mr. Shinde","","sunildatta.shinde@dfpcl.com","",,""
"Sunil","","sunilkrishna.sharma@relianceada.com","",,""
"Capt. Tiwari","","suniltiwari@apeejaygroup.com","",,""
"Jacob","","Supra@lauritzenbulkers.com.sg","",,""
"Suraj","","suraj.sarkar@sumitomocorp.co.jp","",,""
"Mohsin","","surat@benlineagencies.in","",,""
"Suresh","","suresh.n@marggroup.com","",,""
"Mr. Suresh","","sureshnn@factltd.com","",,""
"Surya","","surya.amriza@andhika.com","",,""
"Sushil","","sushil@coastalfuel.com","",,""
"Sushil","","sushil_ks02@yahoo.com","",,""
"Sathyamsi","","svkc@noblechartering.com","",,""
"shail","","svs@arcadiashipping.com","",,""
"Mr. Jeong","","sw@swshipping.co.kr","",,""
"Mr. Swaminathan","","swami@kansamaritime.com","",,""
"Mr. Swaminathan","","swami@trimexgroup.com","",,""
"Swati","","swati@peclimited.com","",,""
"Swati","","Swati_Shukla@cargill.com","",,""
"Mr. Amonkar","","sy.amonkar@zuari.adventz.com","",,""
"Venkat","","s_venkatesh@ruchigroup.com","",,""
"Mr. Shilpi","","t.shilpi@visaresources.in","",,""
"Suresh","","T.Suresh@vedanta.co.in","",,""
"Takashi San","","takashi-a.miyagawa@sumitomocorp.co.jp","",,""
"Tamal","","tamal.roy@tmilltd.com","",,""
"Ms. Thu","","tanbinhship@tanbinhship.com","",,""
"Capt. Amar","","tanker@greatship.com","",,""
"Sir","","tanker@koyoasia.com.sg","",,""
"Capt. Akhtar","","tanker@saigalseatrade.com","",,""
"Ryan","","tanker@stxpanocean.com.sg","",,""
"Mahesh","","tankers@wam.co.in","",,""
"Tanmay","","Tanmay.Patel@relianceada.com","",,""
"Tanya","","tanya.prasad@libertyhouseuk.com","",,""
"Capt. Tariq","","tariq@pfsshipping.com","",,""
"Andreas","","tausenta@toepfer.com","",,""
"Mr. Bhargava","","tbhargava@iffco.in","",,""
"Tejas","","tejas.rao@kyori.in","",,""
"Tetsuro San","","tetsuro.yamamoto@mitsubishicorp.com","",,""
"Tijo","","tijo@southernpacific.in","",,""
"Mr. Damodaran","","tk.damodaran@glencore.com","",,""
"Mr. Kim","","tkt@heung-a.co.kr","",,""
"Mr. Tran Quang","","toan@phuctoanviet.com","",,""
"Fredy","","toepferindiaall@acti.co.in","",,""
"Sun Jiayin","","tonglishai@tongliship.com","",,""
"Capt. Kumar","","toyopac@gol.com","",,""
"Mr. Dash","","tpdash@tatasponge.com","",,""
"Mr. Patro","","tpk.patro@vedanta.co.in","",,""
"Tom","","tpracilio@raincii.com","",,""
"Ms. Seon","","TR2@KOREALINES.CO.KR","",,""
"Sivan","","tradexnd@vsnl.com","",,""
"Shimooka San","","TRAMP-2@nsuship.co.jp","",,""
"Baard","","tramp@thoresen.com","",,""
"Mr. Park","","tramper1@korealines.co.kr","",,""
"Mr. Shabu","","transblk@eim.ae","",,""
"Capt. Yongyut","","trd@thoresen.com","",,""
"Capt. Tripathi","","tripathi@gangavaram.com","",,""
"Trupti","","trupti.mohite@jsw.in","",,""
"Honda San","","Ts.Honda@mitsui.com","",,""
"Tushar","","Tushar.Vaidya@essar.com","",,""
"Tushar","","tushar@sara-intl.com","",,""
"Tushar","","tushar@svansolutionz.com","",,""
"Kannan","","tut.mgr@benlineagencies.in","",,""
"Mr. Vaidyanathan","","tvaidyanathan@tatachemicals.com","",,""
"Capt. Thomas","","twp@sishipping.com","",,""
"Taro San","","tyamada@ampship.com","",,""
"Ujjal","","ujjal@radiant.ae","",,""
"Mr. Khosla","","ukhosla@balaji.co.in","",,""
"Capt. Karlsen","","ulf.karlsen@griegstar.com","",,""
"Mr. Sridhar","","uls@swastikcoal.com","",,""
"Marthandan","","um@devenergy.in","",,""
"Mr. Alam","","Umar.Alam@leighton.co.in","",,""
"Umesh ji","","umesh.kandoi@jsw.in","",,""
"Umesh","","umesh.shimpi@essar.com","",,""
"Mr. Venkataraman","","v.sitaram@wilsonuniverse.com","",,""
"Mr. Madhan","","vaasexports@gmail.com","",,""
"Vaibhav","","vaibhav.mehta@vedanta.co.in","",,""
"Mr. Vaidhyanathan","","vaidhyanathan@tatapower.com","",,""
"Vardaan","","vardaan@jaguaroverseas.com","",,""
"Varinder ji","","varinder.m@emmsons.com","",,""
"Varun","","varun.T@vedanta.co.in","",,""
"Mr. Bhanoji","","vbhanoji@gandharoil.com","",,""
"Vedanth","","vedanth@futurecarbonsolutions.com","",,""
"Capt. Venkat","","venkat@vasishipping.com","",,""
"Mr. Sivaraman","","venkiteswaran.sivaraman@keytrade.ch","",,""
"Vernon","","vernon.morais@lancogroup.com","",,""
"Vibhav","","vibhav.agarwal@relianceada.com","",,""
"Victor","","victor.gerla@gearbulk.com","",,""
"Mr. Handa","","Vijay.Handa@ril.com","",,""
"Capt. Vijay","","vijay.krishnan@gemships.com","",,""
"Vijay","","Vijay.Maheshwari@adm.com","",,""
"Vijay","","vijay.sejpal@glencoreindia.com","",,""
"Vijay","","vijay@sinochem.com","",,""
"Mr. Kalantri","","vijaykalantri@balaji.co.in","",,""
"Vijay","","vijay_joshi@anikinternational.com","",,""
"Vijesh","","vijesh.chawla@jindalsaw.com","",,""
"Vikas","","vikas.makharia@vedanta.co.in","",,""
"Vikas","","vikas@applecoal.co.in","",,""
"Mr. Bhole","","vikasp.bhole@chambal.in","",,""
"Vikas","","vikassawant@saurashtracorp.com","",,""
"Vikram","","vikram.bhasin@trammo.com","",,""
"Vikram","","vikramkatre@omegaglobal.co.in","",,""
"Mr. Vilas","","vilas.joshi@ambujacement.com","",,""
"Mr. Savalaurkar","","vilas.savlapurkar@jsw.in","",,""
"Vimal","","vimal.thareja@trammo.com","",,""
"Vinay","","vinay.prakash@adani.in","",,""
"Vinod","","vinod.bali@gearbulk.com","",,""
"Vinod","","vinod.kumar@bsglobalresources.com","",,""
"Vinod","","vinod.sethi@adityabirla.com","",,""
"Mr. Trivedi","","vinod@metalloydindia.com","",,""
"Vipin","","vipin@aail.co.in","",,""
"Viren","","viren.joshi@ril.com","",,""
"Mr. Virendra","","virendra.chauhan@jsw.in","",,""
"Virendra","","virendra.shaktawat@adani.in","",,""
"Vishal","","Vishal.Rozatkar@relianceada.com","",,""
"Vishal","","vishal.sirohi@renukasugars.com","",,""
"Vishal","","vishal.wadhwa@jindalsteel.com","",,""
"Capt. Vishal","","vishal@intermarineusa.com","",,""
"Vishal","","vishal@mcscoal.com","",,""
"Vishnu","","vishnu@foglagroup.com","",,""
"Vishwanath","","vishwanath.sapaliga@edfmanindia.com","",,""
"Mr. Vishwanath","","vishwanath.singh@kalyanisteels.com","",,""
"Vishwesh","","vishwesh.singbal@zuari.adventz.com","",,""
"Mr. Viswanathan","","viswanathantv@bharatpetroleum.in","",,""
"Mr. Vittala","","vittala.poojary@ambujacement.com","",,""
"Vivek","","vivek.agrawal@vedanta.co.in","",,""
"Vivek","","vivek.d@gulfpetrochem.com","",,""
"Vivek","","vivek.kumar@chambal.in","",,""
"Vivek","","vivek.kumar@westernbulk.com","",,""
"Vivek","","vivek.saraswat@ldcom.com","",,""
"Vivek","","Vivek.Verma@oldendorff.com","",,""
"Vivek","","vivek@pacc.com.sg","",,""
"Vivek","","vivek@southernpacific.in","",,""
"Vivek","","vivek@tatanykshipping.com","",,""
"Vivian","","Vivian.Jia@ldcom.com","",,""
"Mr. Rajesh","","vizag@integraltrading.net","",,""
"Mr. Gupta","","vk.gupta@chambal.in","",,""
"Vineet","","vkmanglik@ho.surya.in","",,""
"Mr. Kutty","","vkrkutty@suzlon.com","",,""
"Vijay","","vks@bhatiacoalindia.com","",,""
"Mr. Patil","","vlpl.patil@gmail.com","",,""
"Vipin","","vmahajan@knowledgegroup.in","",,""
"Mr. Pancholi","","VPancholi@rediffmail.com","",,""
"Capt. Rugneswaran","","vrugneswaran@aet-tankers.com","",,""
"Vrushali","","Vrushali.Mohite@essar.com","",,""
"Srinivas","","vsk.mgr@benlineagencies.in","",,""
"Sir","","vtc-hcm@vitranschart.com.vn","",,""
"Vinod","","vvarier@kctcoalsales.com","",,""
"Vasanth","","vvenkatachalam@midship.com","",,""
"Mr. Sathyanarayanan","","V_Sathyanarayanan@Praxair.com","",,""
"AlWaleed","","WabeliA@Maaden.com.sa","",,""
"Mr. Waleed","","waleed.emeim@msml.com","",,""
"Capt. Wang","","wang@stcl.com.tw","",,""
"Mr. Wilson","","weishun@scsco.com.cn","",,""
"Jung","","wgjung@dongbang.co.kr","",,""
"William","","william.meijer@ne.nykline.com","",,""
"Mr. Shin","","woorimco@kornet.net","",,""
"Sir","","xdry@vitol.com","",,""
"Agnes","","xdryops@Vitol.com","",,""
"Abhishek","","yadavas@tatapower.com","",,""
"Yadu","","yadu.arora@oiltanking.com","",,""
"Mr. Yan","","yan@livenagrichem.com","",,""
"Yang Jiu","","yangjiuqing@imcshipping.com","",,""
"Mr. Choi","","yes.choi@sk.com","",,""
"Yeshwant","","yeshwant@nosindia.com","",,""
"Irene","","ylhu@couragemarine.com","",,""
"Mr. Kedia","","yogendra.kedia@ril.com","",,""
"Yogendra Ji","","yogendrasinh.rana@regalshipping.com","",,""
"Yogender","","ypschauhan@mercator.in","",,""
"Mr. Yogendra","","ysarup@ksoils.com","",,""
"Mr.Braganca","","zabraganca@vmsalgaocar.com","",,""
"Zafar","","zafar@quantumfertilisers.com","",,""
"Zaff","","zaff@j-l.com","",,""
"Mr. Haque","","zeeshanul.haque@sula-logistics.com","",,""
"Zhang","","zlzhang@falconbiz.com","",,""
"Zou","","zoujiqiang@xinshunshipping.com","",,""
